{
  "settings": {
    "i18n": {
      "el": {
        "Phone number must contain only digits (minimum 10 digits)": "Ο αριθμός τηλεφώνου πρέπει να περιέχει μόνο αριθμούς (τουλάχιστον 10 αριθμούς)",
        "Age group": "Ηλικιακή ομάδα",
        "Employment status": "Κατάσταση απασχόλησης",
        "Study level": "Βαθμίδα Εκπαίδευσης",
        "Job description": "Εργοδότης/Είδος Εργασίας/Περίοδος Εργασίας",
        "Occupation": "Ιδιότητα/επάγγελμα",
        "Education - Occupation": "Στοιχεία εκπαίδευσης - απασχόλησης",
        "Discount policy": "Εκπτωτική πολιτική"
      }
    }
  },
  "components": [
    {
      "components": [
        {
          "legend": "Personal Information",
          "key": "fieldset",
          "type": "fieldset",
          "input": false,
          "components": [
            {
              "columns": [
                {
                  "components": [
                    {
                      "label": "Given Name",
                      "key": "candidate.person.givenName",
                      "labelPosition": "top",
                      "widget": {
                        "type": "input"
                      },
                      "validate": {
                        "required": true
                      },
                      "type": "textfield",
                      "input": true
                    }
                  ],
                  "width": 3,
                  "offset": 0,
                  "push": 0,
                  "pull": 0
                },
                {
                  "components": [
                    {
                      "label": "Family Name",
                      "labelPosition": "top",
                      "widget": "choicesjs",
                      "selectValues": "value",
                      "type": "textfield",
                      "key": "candidate.person.familyName",
                      "input": true,
                      "validate": {
                        "required": true
                      }
                    }
                  ],
                  "width": 3,
                  "offset": 0,
                  "push": 0,
                  "pull": 0
                },
                {
                  "components": [
                    {
                      "label": "Gender",
                      "labelPosition": "top",
                      "dataSrc": "url",
                      "data": {
                        "url": "Genders?$filter=identifier ne null",
                        "headers": []
                      },
                      "template": "{{ item.name }}",
                      "key": "candidate.person.gender",
                      "type": "select",
                      "input": true,
                      "selectValues": "value",
                      "valueProperty": "id",
                      "widget": "choicesjs",
                      "searchEnabled": false,
                      "validate": {
                        "required": true
                      },
                      "lazyLoad": true
                    }
                  ],
                  "width": 3,
                  "offset": 0,
                  "push": 0,
                  "pull": 0
                },
                {
                  "components": [
                    {
                      "label": "Age group",
                      "labelPosition": "top",
                      "dataSrc": "url",
                      "data": {
                        "url": "ageGroups?$top={{limit}}&$skip={{skip}}",
                        "headers": []
                      },
                      "limit": 200,
                      "template": "{{ item.name }}",

                      "key": "ageGroup",
                      "type": "select",
                      "input": true,
                      "selectValues": "value",
                      "dataType": "object",
                      "idPath": "id",
                      "widget": "choicesjs",
                      "searchEnabled": true,
                      "validate": {
                        "required": true
                      },
                      "lazyLoad": true
                    }
                  ],
                  "width": 4,
                  "offset": 0,
                  "push": 0,
                  "pull": 0
                }
              ],
              "customClass": "text-dark",
              "hideLabel": true,
              "type": "columns",
              "input": false
            }
          ]
        },
        {
          "legend": "Education - Occupation",
          "key": "fieldSet",
          "type": "fieldset",
          "input": false,
          "label": "Education - Occupation",
          "components": [
            {
              "columns": [
                {
                  "components": [
                    {
                      "label": "Study level",
                      "labelPosition": "top",
                      "dataSrc": "url",
                      "data": {
                        "url": "EducationLevels?$top={{limit}}&$skip={{skip}}",
                        "headers": []
                      },
                      "limit": 200,
                      "template": "{{ item.name }}",
                      "dataType": "object",
                      "idPath": "id",
                      "key": "educationLevel",
                      "type": "select",
                      "input": true,
                      "selectValues": "value",
                      "widget": "choicesjs",
                      "searchEnabled": true,
                      "validate": {
                        "required": true
                      },
                      "lazyLoad": true
                    }
                  ],
                  "width": 3,
                  "offset": 0,
                  "push": 0,
                  "pull": 0
                },
                {
                  "components": [
                    {
                      "label": "Employment status",
                      "labelPosition": "top",
                      "dataSrc": "url",
                      "data": {
                        "url": "employmentStatuses?$top={{limit}}&$skip={{skip}}",
                        "headers": []
                      },
                      "limit": 200,
                      "template": "{{ item.name }}",
                      "dataType": "object",
                      "idPath": "id",
                      "key": "employmentStatus",
                      "type": "select",
                      "input": true,
                      "selectValues": "value",
                      "widget": "choicesjs",
                      "searchEnabled": true,
                      "validate": {
                        "required": true
                      },
                      "lazyLoad": true
                    }
                  ],
                  "width": 4,
                  "offset": 0,
                  "push": 0,
                  "pull": 0
                },
                {
                  "components": [
                    {
                      "label": "Occupation",
                      "key": "profession",
                      "labelPosition": "top",
                      "widget": {
                        "type": "input"
                      },
                      "validate": {
                        "required": true
                      },
                      "type": "textfield",
                      "input": true
                    }
                  ],
                  "width": 3,
                  "offset": 0,
                  "push": 0,
                  "pull": 0
                },
                {
                  "components": [
                    {
                      "label": "Job description",
                      "labelPosition": "top",
                      "widget": {
                        "type": "input"
                      },
                      "validate": {
                        "required": false
                      },
                      "key": "jobDescription",
                      "type": "textfield",
                      "input": true
                    }
                  ],
                  "width": 3,
                  "offset": 0,
                  "push": 0,
                  "pull": 0
                }
              ],
              "customClass": "text-dark",
              "hideLabel": true,
              "type": "columns",
              "input": false
            }
          ]
        },
        {
          "legend": "Discount policy",
          "key": "fieldSet",
          "type": "fieldset",
          "input": false,
          "label": "Discount policy",
          "customConditional": "show = !!data.fees===0",
          "components": [
            {
              "columns": [
                {
                  "components": [
                    {
                      "label": "Discount category",
                      "labelPosition": "top",
                      "dataSrc": "url",
                      "data": {
                        "url": "DiscountCategories?$top=-1&$expand=label",
                        "headers": []
                      },
                      "limit": 200,
                      "template": "{{ item.name }} - ({{item.label.name}})",
                      "dataType": "object",
                      "idPath": "id",
                      "key": "discount",
                      "type": "select",
                      "input": true,
                      "selectValues": "value",
                      "widget": "choicesjs",
                      "searchEnabled": true,
                      "validate": {
                        "required": true
                      },
                      "lazyLoad": true
                    }
                  ],
                  "width": 3,
                  "offset": 0,
                  "push": 0,
                  "pull": 0
                },
                {
                  "components": [
                    {
                      "label": "Employment status",
                      "labelPosition": "top",
                      "dataSrc": "url",
                      "data": {
                        "url": "employmentStatuses?$top={{limit}}&$skip={{skip}}",
                        "headers": []
                      },
                      "limit": 200,
                      "template": "{{ item.name }}",
                      "dataType": "object",
                      "idPath": "id",
                      "key": "employmentStatus",
                      "type": "select",
                      "input": true,
                      "selectValues": "value",
                      "widget": "choicesjs",
                      "searchEnabled": true,
                      "validate": {
                        "required": true
                      },
                      "lazyLoad": true
                    }
                  ],
                  "width": 4,
                  "offset": 0,
                  "push": 0,
                  "pull": 0
                },
                {
                  "components": [
                    {
                      "label": "Occupation",
                      "key": "profession",
                      "labelPosition": "top",
                      "widget": {
                        "type": "input"
                      },
                      "validate": {
                        "required": true
                      },
                      "type": "textfield",
                      "input": true
                    }
                  ],
                  "width": 3,
                  "offset": 0,
                  "push": 0,
                  "pull": 0
                },
                {
                  "components": [
                    {
                      "label": "Job description",
                      "labelPosition": "top",
                      "widget": {
                        "type": "input"
                      },
                      "validate": {
                        "required": false
                      },
                      "key": "jobDescription",
                      "type": "textfield",
                      "input": true
                    }
                  ],
                  "width": 3,
                  "offset": 0,
                  "push": 0,
                  "pull": 0
                }
              ],
              "customClass": "text-dark",
              "hideLabel": true,
              "type": "columns",
              "input": false
            }
          ]
        },
        {
          "legend": "Contact Details",
          "key": "fieldSet",
          "type": "fieldset",
          "input": false,
          "label": "Contact Details",
          "components": [
            {
              "columns": [
                {
                  "components": [
                    {
                      "label": "Address",
                      "labelPosition": "top",
                      "widget": {
                        "type": "input"
                      },
                      "validate": {
                        "required": false
                      },
                      "key": "candidate.person.homeAddress",
                      "type": "textfield",
                      "input": true
                    }
                  ],
                  "width": 3,
                  "offset": 0,
                  "push": 0,
                  "pull": 0
                },
                {
                  "components": [
                    {
                      "label": "Postal Code",
                      "labelPosition": "top",
                      "widget": {
                        "type": "input"
                      },
                      "validate": {
                        "required": false
                      },
                      "key": "candidate.person.homePostalCode",
                      "type": "textfield",
                      "input": true
                    }
                  ],
                  "width": 3,
                  "offset": 0,
                  "push": 0,
                  "pull": 0
                },
                {
                  "components": [
                    {
                      "label": "City",
                      "labelPosition": "top",
                      "widget": {
                        "type": "input"
                      },
                      "validate": {
                        "required": false
                      },
                      "key": "candidate.person.homeCity",
                      "type": "textfield",
                      "input": true
                    }
                  ],
                  "width": 3,
                  "offset": 0,
                  "push": 0,
                  "pull": 0
                },
                {
                  "components": [
                    {
                      "label": "Country",
                      "labelPosition": "top",
                      "dataSrc": "url",
                      "data": {
                        "url": "Countries?$top={{limit}}&$skip={{skip}}",
                        "headers": []
                      },
                      "limit": 200,
                      "template": "{{ item.name }}",
                      "selectValues": "value",
                      "widget": {
                        "type": "input"
                      },
                      "key": "candidate.person.homeCountry",
                      "valueProperty": "name",
                      "type": "select",
                      "input": true,
                      "lazyLoad": true
                    }
                  ],
                  "width": 3,
                  "offset": 0,
                  "push": 0,
                  "pull": 0
                },
                {
                  "components": [
                    {
                      "label": "Phone",
                      "labelPosition": "top",
                      "type": "textfield",
                      "spellcheck": true,
                      "widget": {
                        "type": "input"
                      },
                      "validate": {
                        "pattern": "^[0-9]*$",
                        "customMessage": "Phone number must contain only digits (minimum 10 digits)",
                        "minLength": 10,
                        "maxLength": 20
                      },
                      "key": "candidate.person.homePhone",
                      "input": true
                    }
                  ],
                  "width": 3,
                  "offset": 0,
                  "push": 0,
                  "pull": 0
                },
                {
                  "components": [
                    {
                      "label": "Mobile Phone",
                      "type": "textfield",
                      "labelPosition": "top",
                      "validate": {
                        "pattern": "^\\+[0-9]*$",
                        "customMessage": "Phone number must contain only digits (minimum 10 digits)",
                        "minLength": 10,
                        "maxLength": 20,
                        "required": true
                      },
                      "input": true,
                      "key": "candidate.person.mobilePhone",
                      "widget": "choicesjs",
                      "description": "Include country code e.g +3069xxxxxxxx"
                    }
                  ],
                  "width": 3,
                  "offset": 0,
                  "push": 0,
                  "pull": 0
                },
                {
                  "components": [
                    {
                      "label": "Email",
                      "labelPosition": "top",
                      "type": "email",
                      "input": true,
                      "selectValues": "value",
                      "key": "candidate.person.email",
                      "widget": "choicesjs",
                      "validate": {
                        "required": true
                      }
                    }
                  ],
                  "width": 3,
                  "offset": 0,
                  "push": 0,
                  "pull": 0
                }
              ],
              "customClass": "text-dark",
              "hideLabel": true,
              "type": "columns",
              "input": false
            }
          ]
        }
      ]
    }
  ]
}
