{
  "title": "Students.All",
  "model": "Students",
  "searchExpression":"indexof(studentIdentifier, '${text}') ge 0 or indexof(person/familyName, '${text}') ge 0 or indexof(person/givenName, '${text}') ge 0 or indexof(user/name, '${text}') ge 0 or indexof(studyProgram/name, '${text}') ge 0 or indexof(studentStatus/name, '${text}') ge 0 or indexof(uniqueIdentifier, '${text}') ge 0",
  "selectable": true,
  "multipleSelect": true,
  "columns": [
    {
      "name":"id",
      "placeholder": "Tables.ActionLinkColumn",
      "property": "id",
      "formatter": "ActionLinkFormatter",
      "actions" : [
        {
          "title": "Students.Preview",
          "href": "#/students/${id}/dashboard",
          "role": "preview"
        },
        {
          "title": "Students.PreviewStudyProgram",
          "href": "#/study-programs/${studyProgramId}/preview/general",
          "role": "action"
        },
        {
          "title": "Students.PreviewStudentCourses",
          "href": "#/students/${id}/dashboard/grades",
          "role": "action"
        },
        {
          "title": "Students.Edit",
          "href": "#/students/${id}/edit",
          "access":[
            {
              "studentStatuses": [
                {"alternateName" : "active"}
              ]
            }
          ],
          "role": "edit"
        },
        {
          "title": "Reports.Print",
          "href": "#/students/${id}/dashboard/overview/(modal:print)",
          "role": "action"
        },
        {
          "title": "Students.RequestDocument",
          "href": "#/students/${id}/dashboard/overview/(modal:/new-request-document)",
          "role": "action"
        },
        {
          "title": "Students.CancelGraduation",
          "invoke": "cancelGraduation",
          "click": "",
          "access":[
            {
              "studentStatuses": [
                {"alternateName" : "graduated"}
              ]
            }
          ],
          "role": "method"
        }
      ]
    },
    {
      "name":"studyProgram",
      "property": "studyProgramId",
      "title": "Students.studyProgramId",
      "hidden": true
    },
    {
      "name":"studyProgramSpecialty",
      "property": "studyProgramSpecialtyId",
      "title": "Students.SpecialtyId",
      "hidden": true
    },
    {
      "name":"studentIdentifier",
      "property": "studentIdentifier",
      "title":"Students.studentIdentifier"
    },
    {
      "name":"person/familyName",
      "property": "familyName",
      "title":"Students.fullName",
      "formatter": "TemplateFormatter",
      "formatString": "${familyName} ${givenName}"
    },
    {
      "name":"person/givenName",
      "property": "givenName",
      "title":"Students.GivenName",
      "hidden": true
    },
    {
      "name":"studyProgram/abbreviation",
      "property": "studyProgram",
      "title":"Students.studyProgram"
    },
    {
      "name":"inscriptionYear/alternateName",
      "property": "inscriptionYear",
      "title":"Students.inscriptionYear"
    },
    {
      "name":"inscriptionPeriod/alternateName",
      "property": "inscriptionPeriod",
      "title":"Students.inscriptionPeriod",
      "formatter": "TranslationFormatter",
      "formatString": "Periods.${value}"
    },
    {
      "name":"studentStatus/alternateName",
      "property": "studentStatus",
      "title":"Students.Status",
      "formatter": "TranslationFormatter",
      "formatString": "StudentStatuses.${value}"
    },
    {
      "name": "user/name",
      "property": "username",
      "title": "Students.UserName"
    },
    {
      "name": "user",
      "property": "user",
      "hidden": true
    }
  ],
  "criteria": [
    {
      "name": "studentIdentifier",
      "filter": "(studentIdentifier eq '${value}')",
      "type": "text"
    },
    {
      "name": "studentName",
      "filter": "(indexof(person/familyName, '${value}') ge 0 or indexof(person/givenName, '${value}') ge 0)",
      "type": "text"
    },
    {
      "name": "username",
      "filter": "(indexof(user/name, '${value}') ge 0)",
      "type": "text"
    },
    {
      "name": "studyProgram",
      "filter": "(studyProgram eq ${value})",
      "type": "text"
    },
    {
    "name": "studyProgramSpecialty",
    "filter": "(studyProgramSpecialty eq '${value.id}')",
    "type": "text"
    },
    {
      "name": "studentStatus",
      "filter": "(studentStatus/alternateName eq '${value}')",
      "type": "text"
    },
    {
      "name": "inscriptionMode",
      "filter": "(inscriptionMode/id eq '${value}')",
      "type": "text"
    },
    {
      "name": "graduated",
      "filter": "studentStatus/alternateName eq 'graduated'",
      "type": "text"
    },
    {
      "name": "active",
      "filter": "studentStatus/alternateName eq 'active'",
      "type": "text"
    },
    {
      "name": "inscriptionYear",
      "filter": "(inscriptionYear/id eq '${value}')",
      "type": "text"
    },
    {
      "name": "inscriptionPeriod",
      "filter": "(inscriptionPeriod/id eq '${value}')",
      "type": "text"
    },
    {
      "name": "semester",
      "filter": "(semester eq '${value}')",
      "type": "text"
    },
    {
      "name": "hasUser",
      "filter": "${value >=1 ? '(user ne null)': '(user eq null)'}",
      "type": "text"
    }
  ],
  "searches": [
    {
      "name": "AdvancedSearch.PreDefinedLists.graduatedStudents",
      "filter": {
        "graduated": true
      }
    },
    {
      "name": "AdvancedSearch.PreDefinedLists.activeStudents",
      "filter": {
        "active": true
      }
    }
  ],
  "defaults":{
    "filter": "(department eq ${currentDepartment})"
  },
  "paths" : [
    {
      "name": "Students.Active",
      "alternateName": "list/active",
      "show": true,
      "filter": {
        "status": "active"
      }
    },
    {
      "name": "Students.All",
      "show": true,
      "alternateName": "list/index",
      "filter": {
      }
    },
    {
      "name": "Students.FirstYear",
      "alternateName": "list/first-year",
      "filter": {
        "firstYearStudents": true
      }
    },
    {
      "name": "Students.Candidates",
      "alternateName": "list/candidates",
      "filter": {
        "status": "candidate"
      }
    },
    {
      "name": "Students.Declared",
      "alternateName": "list/declared",
      "filter": {
        "status": "declared"
      }
    },
    {
      "name": "Students.Graduated",
      "alternateName": "list/graduated",
      "filter": {
        "status": "graduated"
      }
    },
    {
      "name": "Students.Suspended",
      "alternateName": "list/suspended",
      "filter": {
        "status": "suspended"
      }
    },
    {
      "name": "Students.Removed",
      "alternateName": "list/removed",
      "filter": {
        "status": "erased"
      }
    }
  ]
}
